{
  "LanguageName": "English",
  "LocalizedName": "English",
  "LocalizationFlagEmoji": "🇺🇸",
  "FallbackLanguage": "",
  "Authors": "SKProCH",
  "Data": {
    "Messages": {
      "WelcomeDescription": "Greetings! 👋\nThank you for adding me here!\n\nMy prefix is `{0}`, or you can just mention me - {1}. Also, you can use slash commands to interact with bot.\nThe list of commands can be viewed through `/help`.\nYou also can get support on our [Discord server](https://discord.gg/zfBffbBbCp).\n\nHere is a brief overview of my commands:",
      "WelcomeMusicTitle": "***📻 Music***",
      "WelcomeMusic": "You can request tracks from YouTube, SoundCloud, Yandex Music, Spotify and many other platforms.\nYou can control playback through buttons and commands. You can create and request your own playlists and much more. List of music commands - `/help music`",
      "WelcomeLoggingTitle": ":book: ***Logging***",
      "WelcomeLogging": "This bot collects a detailed history and can display all message changes in one place. If necessary, export the log to an image.\nChanges to messages do not clog the log channel, instead the entire history is exported when the message is deleted.\nTo enable log collection, write `/enablelogging true`. To see the change history, put :book: under the desired message or use the command `/help history`",
      "WelcomeLocalizationTitle": "🇺🇸 ***Localization***",
      "WelcomeLocalization": "You can change the bot's response language with `/language`",
      "WelcomeInfoTitle": "ℹ️ **Additional Information**",
      "WelcomeInfo": "`/help setchannel` - to assign a role to channels (without this, logging will not send reports when a message is deleted, for example)\n`/help setprefix` - to change the bot prefix\n`/stats` and `/userstats` - to view statistics\nInvitation link can be found in bot profile",
      "WelcomeGithubTitle": "🆘 **Help us**",
      "WelcomeGithub": "If **you find an error**, you want to help with localizations or you **have an idea** - open an [issue](https://gitlab.com/skprochlab/nJMaLBot/-/issues) or create a [Merge Request](https://docs.gitlab.com/ee/user/project/merge_requests/creating_merge_requests.html) on [our GitLab](https://gitlab.com/skprochlab/nJMaLBot)!"
    },
    "Localization": {
      "Success": "Successfully changed the bot language to `{0}`",
      "Fail": "There is no language {0}.\nAvailable: {1}",
      "LanguagesList": "Language selection",
      "LanguageDescription": "```/language {0}```\nAuthors - {1}\nCompleteness of translation - {2}%"
    },
    "MusicQueues": {
      "Enqueued": "**{0}** enqueue `{1}`",
      "EnqueuedMany": "**{0}** enqueued `{1}` tracks",
      "Jumped": "**{0}** jumped to `{1}` track - `{2}`",
      "NewVolume": "**{0}** set new volume: `{1}`%",
      "RepeatSet": "**{0}** set repeat mode to {1}",
      "Pause": "**{0}** pauses playback",
      "Resume": "**{0}** resumes playback",
      "Shuffle": "**{0}** shuffles tracks in queue",
      "FF": "**{0}** fast forward the `{1}` track for `{2}` seconds",
      "Rewind": "**{0}** rewind the `{1}` track for `{2}` seconds",
      "Seek": "**{0}** moved playback position to `{1}`",
      "Remove": "**{0}** deletes the `{1}` track - `{2}`",
      "RemoveRange": "**{0}** deletes `{1}` tracks. From `{2}` to `{3}`",
      "TrackMoved": "**{0}** moves the `{1}` track to `{2}` position",
      "NodeChanged": "**{0}** moves playback to a new node: `{1}`",
      "LimitExceed": "**{0}** made `{1}` requests that were not fully processed. The queue already contains {2} tracks",
      "PlaylistLoadingLimit": "**{0}** cannot load playlist with `{1}` tracks inside. Queue cannot contain more than {2} tracks",
      "QueueTitle": "Queue"
    },
    "Music": {
      "RequestHistory": "Request history",
      "RequestTracks": "Request tracks via `/play`",
      "QueueEmpty": "The queue is empty. {loc:Music.RequestTracks}",
      "VolumeOutOfRange": "Volume out of range: 10% - 200%!",
      "RequestedBy": "Requested by: {0}",
      "NothingPlaying": "Nothing playing. {loc:Music.RequestTracks}",
      "Fail": "Error",
      "Playback": "Playback",
      "UserStopPlayback": "**{0}** stopped playback {loc:Common.HelpByVote}",
      "PlaybackStopped": "Playback stopped",
      "NoListenersLeft": "Playback stopped - no listeners or tracks left {loc:Common.HelpByVote}",
      "BotKicked": "Playback stopped - the bot was disconnected from the channel by someone {loc:Common.HelpByVote}",
      "NotFound": "No results for `{0}`",
      "Loading": "Loading",
      "Queue": "Queue - `{0}` of `{1}`  (`{2}` total)",
      "QueueEmptyTitle": "Queue is empty",
      "TrackIndexWrong": "{0}, the playlist does not have a track with the index `{1}`. The valid value is from `1` to `{2}`",
      "PlaybackMoved": "The playback bar has been moved to the music channel - <#{0}>",
      "OtherVoiceChannel": "{0}, You must be in the same voice channel as the bot",
      "NotInVoiceChannel": "{0}, You must be in a voice channel",
      "DecodingError": "**Decoding error** - `{0}`",
      "DecodingErrorRemove": "**Decoding error** - `{0}`. Track removed.",
      "ChannelNotAllowed": "{0}, you can’t play music in this channel. Use <#{1}> for this, or ask an administrator to change this through the server setup.",
      "MusicDisabled": "The bot does not have access to any Lavalink server and cannot play anything. Write to the host owner about this problem.",
      "PlayerDropped": "Unfortunately, the node that served your playback has crashed.",
      "PlayerMoved": "The node that served your playback has crashed. We resumed it on another node.",
      "PlaylistSaved": "Playlist saved. ID: `{0}`\nUse `/loadplaylist {0}`\nOr `/addplaylist {0}`\nOr `/runplaylist {0}`\nDetails about these commands can be viewed through `/help`",
      "PlaylistNotFound": "Playlist `{0}` not found",
      "LoadPlaylist": "**{0}** starts loading playlist `{1}`",
      "ClearPlaylist": "**{0}** clears playlist",
      "ImportPlayerStop": "Player stopped due playlist importing",
      "AddTracks": "**{0}** enqueue {1} tracks",
      "SearchResultsTitle": "Search results",
      "SearchResultsDescription": "{0} search results for `{1}`:\n\n",
      "NothingFound": "Nothing found 😩",
      "CantConnect": "The bot cannot join your voice channel `{0}`",
      "StartPlayingFailed": "An error occurred while trying to start playing track `{0}`. In order to continue, we are removing it from the playlist.",
      "Parameters": "Parameters",
      "PlaybackNothingPlaying": "Nothing playing",
      "Waiting": "Waiting...",
      "QueueEnd": "End of queue reached",
      "OnlyOneNode": "Unfortunately, only the node you are using is available to the bot right now",
      "ResumeViaPlaylists": "You can try to replay through `/loadplaylist {0}`",
      "Empty": "Empty",
      "Warning": "**Warning**",
      "WarningCustomEmoji": "‼️Custom reactions for a beautiful display of the player are not available for the bot. To do this, it needs permission `USE_EXTERNAL_EMOJIS`.",
      "TrackNotSeekable": "{0}, Unfortunately, this track is not seek-able",
      "TryReconnectAfterDispose": "We are trying to revive the player automatically. If we didn't succeed, use `/loadplaylist {0}`",
      "ReconnectedAfterDispose": "The player has been restarted. We fixed everything. If not, use `/stop` and `/loadplaylist {0}`",
      "ResolvingTracks": "**{0}** made `{1}` requests. Processed `{2}` of them, added `{3}` tracks.",
      "CurrentTrackNonSpotify": "The current track has not received from Spotify. Switch to a track from Spotify or provide the track ID as an argument to this command.",
      "TrackStuck": "The current track is stuck. Let's skip.",
      "TrackException": "Track playback error: `{0}`. Let's skip.",
      "PlayerRestored": "**{0}** restored the last player.",
      "LyricsNotFound": "Lyrics for the current song could not be found.\nQuery: {0} - {1}\nThis is an experimental feature, don't blame us if it doesn't work.",
      "EffectParseFailedWithDefault": "Error parsing effect arguments. Possible values: {0} or leave blank for {1}.",
      "EffectNotFound": "No effect found with this name.",
      "EffectApplied": "**{0}** applies `{1}` effect",
      "EffectRemoved": "**{0}** removes `{1}` effect",
      "Effects": "Effects",
      "MaxEffectsCountExceed": "The maximum number of effects ({0}) has already been applied to the player.",
      "ClusterNotReadyCommandIgnored": "Cluster not ready yet. Since this command does not add anything to the queue, it will be ignored.",
      "AwaitingClusterInitializing": "{emoji:LoadingAnimated} Awaiting for music cluster initialization",
      "AwaitingNodeConnection": "{emoji:LoadingAnimated} Awaiting for any music node becomes available. If it takes a long time, it might be worth contacting the bot owner",
      "NoSnapshotFoundToResume": "Apparently the player has never stopped - there is nothing to restore. {loc:Music.RequestTracks}",
      "RestoreStoppedPlayerButton": "Restore player"
    },
    "Effects": {
      "AddEffectTitle": "How to add effect",
      "AddEffectDescription": "1. Go to [configurator](https://tinyurl.com/enliveneffects) \n2. Enter effect name \n3. Edit other effect options \n4. Copy resulting json from \"JSON Output\" field at right upper corner \n5. Execute `/effects add YourJsonHere` command",
      "NameLength": "`Name` length must be between `{0}` and `{1}` characters",
      "FiltersCount": "You must set at least one filter",
      "ParametersCount": "{0}` filter: You must set at least one parameter",
      "Between": "`{0}` filter: `{1}` value must be between {2} and {3}",
      "MoreThen": "`{0}` filter: `{1}` value must be more then {2}",
      "BandsDuplicate": "The equalizer should not have duplicating bands ({0})",
      "BandsNumbers": "Bands must be between 0 and 14",
      "ApplyEffectTitle": "Apply effect",
      "ApplyEffectDescription": "Use command `/effect NAME` where name is effect name or id.\nBuild-in effects: {0}",
      "AddCustomEffectTitle": "Custom effects",
      "AddCustomEffectDescription": "Use command `/effects add` to get instructions",
      "Remove": "Remove:",
      "Add": "Add:"
    },
    "Groups": {
      "": "Other",
      "music": "Music",
      "admin": "Administrative",
      "utils": "Utilities"
    },
    "Help": {
      "HelpPrefix": "Current bot prefix `{0}` or ping ({1}). Slash commands also available.\nYou also can get support on our [Discord server](https://discord.gg/zfBffbBbCp).",
      "HelpTitle": "Available commands",
      "HelpDescription": "Help for all commands and categories",
      "NotFoundTitle": "Command not found",
      "NotFoundDescription": "Command `{0}` not found. Use `/help` to see all available commands.",
      "CommandsOfGroup": "Available commands from group `{0}`",
      "CommandTitle": "**{0}** - {1}",
      "ByCommand": "Command help: `{0}`",
      "stats0s": "Bot command usage statistics",
      "userstats0s": "Bot command usage statistics",
      "userstats0_0s": "The user whose statistics has been requested",
      "shuffle0s": "Randomizes the tracks in the queue",
      "pause0s": "Pauses playback",
      "resume0s": "Resumes playback",
      "help0s": "Shows information about a specific command",
      "help0_0s": "Command or group name",
      "help1s": "Shows information about all commands",
      "list0s": "Displays the entire queue",
      "renderlog0s": "Displays the message change history as an image",
      "history0s": "Shows the message change history.\nYou can also put emotion 📖 under the desired message",
      "history0_0s": "ID of the message whose history needs to be displayed. You can also use a pair of `channel ID`-`ID messages`",
      "setprefix0s": "Assigns a prefix for bot commands",
      "setprefix0_0s": "New prefix",
      "language0s": "Allows you to select the language of the bot's responses",
      "language0_0s": "Language",
      "setchannelrole0s": "Specifies the channel that the bot will use for a specific type of messages",
      "setchannelrole0_0s": "Channel function name (`music`, `log`, `dedicatedmusic`)",
      "setchannelrole0_1s": "Channel link or nothing to clear role",
      "play0s": "Play music by name or URL",
      "play0_0s": "Query",
      "play1s": "Play music from an attached file",
      "volume0s": "Player volume control",
      "volume0_0s": "New volume",
      "stop0s": "Stops the current track",
      "jump0s": "Moves the playhead to the specified number of tracks. Can move back.",
      "jump0_0s": "Number of tracks",
      "goto0s": "Moves the playhead to a specific track on it's index",
      "goto0_0s": "Index of track",
      "repeat0s": "Setting repeat playback mode: `All`, `One`, `Off`",
      "clearhistories0s": "Clearing all message change logs from this server",
      "runplaylist0s": "Adds the contents of the playlist to the track list and goes to the track specified in the playlist",
      "addplaylist0s": "Adds playlist content to track list",
      "loadplaylist0s": "Replaces a track list with a playlist",
      "saveplaylist0s": "Exports the current track list to a playlist",
      "playlistId": "Playlist ID to import",
      "youtube0s": "Advanced track search on YouTube",
      "soundcloud0s": "Advanced track search on SoundCloud",
      "fastforward0s": "Fast forward for a specified time",
      "fastforward0_0s": "Amount of time. The default is 10 seconds. For example: `4d3h2m1s`",
      "rewind0s": "Rewind for a specified time",
      "seek0s": "Sets the playing track's position to the specified position",
      "seek0_0s": "Specified position. For example: `4d3h2m1s`",
      "remove0s": "Deletes the specified track (or range of tracks) from the playlist",
      "remove0_0s": "Track number (or the beginning of the range if the second parameter is specified)",
      "remove0_1s": "End of range",
      "remove1_1s": "Number of tracks",
      "move0s": "Moves a track in queue",
      "move0_0s": "Track Index",
      "move0_1s": "Desired queue position",
      "changenode0s": "Attempts to move playback to another music node. May help if current node lags",
      "invite0s": "Helps you invite a bot to another server",
      "logging0s": "Shows a message logging control panel",
      "fixspotify0s": "Wrong tracks when requesting from Spotify? We need to put an end to this. Together.",
      "fixspotify0_0s": "Spotify URL of the desired track",
      "playnext0s": "Same as `play`, but adds tracks immediately after the current one, not to the end of the queue",
      "playerrestart0s": "Allows you to completely restart the player. Beware: Experimental feature",
      "lyrics0s": "Get song lyrics (if available)",
      "effect0s": "Applies or removes the post-processing effect",
      "effect0_0s": "Effect name or ID (built-in: `mono`, `bassboost`(`bb`), `nightcore`(`nc`), `8d`)",
      "effect0_1s": "Parameter of the applied effect. For example `bassboost` mode: `Low`, `Medium`, `High`, `Extreme`",
      "effects_current0s": "Display embed to allow manage sounds effects",
      "effects_add0s": "Add a custom sound effect",
      "effects_add0_0s": "JSON string representing new effect. Leave empty to get guide"
    },
    "CommandHandler": {
      "FailedTitle": "Error executing command",
      "UnmetPrecondition": "You do not have permission to execute this command!",
      "BadArgCount": "Error - wrong number of arguments for this command. Here's a hint for using the command:",
      "ParseFailed": "An error occurred while trying to parse this command. Here's a hint for using the command:",
      "UnknownCommand": "Command `{0}` not found!\nPerhaps you wanted to use one of these: {1}\nUse the command `/help` for a list of commands.",
      "CommandOnCooldown": "The command you were trying to execute is on cooldown. Try again later."
    },
    "Commands": {
      "RequestedBy": "Requested by {0} | Help us by voting",
      "SetChannelRoleResponse": "Channel <#{0}> was successfully assigned the role {1}",
      "ClearChannelRoleResponse": "Channel role {0} cleared",
      "CategoryChannelNotSupported": "Despite the fact that discord allows you to specify a category in this command, it is necessary to specify the channel(not the channel category)",
      "VoiceChannelNotSupported": "Despite the fact that discord allows you to specify a voice channel in this command, it is necessary to specify the text channel",
      "Success": "Success",
      "Fail": "Fail",
      "SetPrefixResponse": "Changed the bot prefix to `{0}`.\nIf you forget the prefix, just mention the bot.",
      "LoggingEnabled": "Saving message change history enabled",
      "LoggingDisabled": "Saving message change history disabled",
      "CommandLoggingEnabled": "Saving history for successful commands enabled",
      "CommandLoggingDisabled": "Saving history for successful commands disabled"
    },
    "MessageHistory": {
      "PreviousUnavailable": "`Previous edits unavailable`",
      "MessageWasDeleted": "Message has been deleted",
      "LastContent": "***Last content:*** ({0})",
      "LastContentDescription": "Last content:\n>>> {0}",
      "InChannel": "In <#{0}>",
      "Unavailable": "Unavailable",
      "MessageId": "Message ID: {0}",
      "LogTitle": "Message Changes History",
      "MessageNull": "Failed to get change history: message not found. \nProbable reasons: \n- Wrong ID \n- Message deleted \n- The bot no longer has access to it.",
      "MessageWithoutHistory": "[Message]({0}) change history not found.\nProbable reasons:\n- The message was written before the bot appeared on the server\n- The bot was offline while writing the message\n- The message was written in the log channel\n- Logging is turned off (configure via `/logging`)",
      "ByAuthor": "By {0}",
      "Requester": "Requester",
      "ChannelDeleted": "Channel {0} ({1}) on {2} was deleted. Cleared {3} messages.",
      "GuildLogCleared": "The bot cleared the message history of the guild {0} ({1}). Cleared {2} posts.",
      "ViewMessageExists": "View change history [of this post]({0})",
      "Attachments": "Attachments: {0}",
      "AttachmentsTitle": "Attachments",
      "EmptyMessage": "```The message is empty```",
      "IdFailedToParse": "We cannot recognize the message ID (and channel ID) in `{0}`. \nCorrect Input Example:\n> /history 276780134676037642-728591222217637918\n> /history 728591222217637918",
      "DeletedMessagesPackDescription": "**Deleted messages whose change history cannot be found:**"
    },
    "Statistics": {
      "Title": "Statistics",
      "NoGlobalStats": "Apparently, no one has used this bot 😥. You are the first.",
      "NoUserStats": "Apparently, {0} did not use the bot.",
      "GlobalStats": "Bot commands global statistics",
      "UserStats": "{0}'s usage statistics for bot commands",
      "ByCommands": "Commands",
      "ByMessages": "Message changes history",
      "ByMusic": "Playback",
      "ByGlobal": "Global",
      "ByGlobalFormatted0": "The bot serves `{0} servers`.\n These are `{1} text` and `{2} voice` channels.\n These are `{3} users`.\n",
      "ByGlobalFormatted1": "This is the `{0} command usages` all time.\n This is the `{1} persons that used the bot`.",
      "ByMusicFormatted": "The bot played `{0} days`, `{1} hours` and `{2} minutes` of music",
      "MessagesCreated": "Message creations logged",
      "MessagesChanged": "Message changes logged",
      "MessagesDeleted": "Message deletions logged"
    },
    "Common": {
      "Invite": "Invite",
      "InviteDescription": "Open this bot profile and use \"Add to server\" button for inviting the bot to another server. Hope to see you there! 😀\nOr you can find invite link on [out GitLab](https://gitlab.com/enlivenbot/enliven)",
      "Vote": "**Support Us**",
      "VoteDescription": "You can **freely** support us on:\n[top.gg](https://top.gg/bot/606760964183949314) (voting every 12 hours, write a review)\n[discordbotlist.com](https://discordbotlist.com/bots/enliven) (vote every 12 hours)\n[bots.ondiscord.xyz](https://bots.ondiscord.xyz/bots/606760964183949314) (write a review)\n Or you can just look at [discord.bots.gg](https://discord.bots.gg/bots/606760964183949314)\n\nDo not forget about [our GitLab](https://gitlab.com/enlivenbot/enliven), where you can write errors and suggestions\nAlso, you can join our [Discord support server](https://discord.gg/zfBffbBbCp)",
      "All": "All",
      "Stop": "Stop",
      "OnlyRequester": "Only the requester ({0}) can interact with this component",
      "HelpByVote": "\n\nHelp us by voting (`/vote`)"
    },
    "ChainsCommon": {
      "Ended": "Completed",
      "Thanks": "The current command chain has been completed.\nThanks for using this bot. {loc:Common.HelpByVote}",
      "ReasonStartedNew": "The current chain of commands has been terminated, as a new one has been launched.",
      "ReasonTimeout": "The current command chain ended because the timeout limit was reached",
      "CantSend": "We cannot complete this action in {0} because we do not have the necessary permissions"
    },
    "Chains": {
      "LoggingTitle": "Logging",
      "FixSpotifyTitle": "Fix Spotify!",
      "FixSpotifyQueryNotRecognised": "We cannot recognize the playlist or track in `{0}`",
      "FixSpotifyAssociationCreationError": "Something went wrong while creating the default association. Try again later",
      "FixSpotifyNotFound": "We could not find anything for this request: `{0}`",
      "FixSpotifyPlaylistChooseName": "Choose track",
      "FixSpotifyPlaylistChooseValue": "To choose a track - write the index in the next message. For example: \n> 1",
      "FixSpotifyNewTrackError": "No results were found for your query `{0}`, or more than one result was found",
      "FixSpotifyTrackAlreadyExists": "Such an association already exists. You automatically upvoted the exisiting one.",
      "FixSpotifyAssociationChoose": "{0}\n\nTo select an association, write it's number, for example:\n> 1\nFast Association Vote:\n> 1 +\nAdding an association:\n> new `Youtube query or url`\nWhen adding a new association, your previous association (if any) will be deleted"
    },
    "Logging": {
      "_enabled": "**enabled** ✅",
      "_disabled": "**disabled** ❌",
      "Enabled": "📝 Logging on this server {loc:Logging._enabled}",
      "Disabled": "📝 Logging on this server {loc:Logging._disabled}",
      "CommandEnabled": "🤖 Logging messages containing commands for the bot {loc:Logging._enabled}",
      "CommandDisabled": "🤖 Logging messages containing commands for the bot {loc:Logging._disabled}",
      "HistoryMissingInLogEnabled": "⁉️ Send message about deleting a message whose change history was not found, {loc:Logging._enabled}",
      "HistoryMissingInLogDisabled": "⁉️ Send message about deleting a message whose change history was not found, {loc:Logging._disabled}",
      "HistoryMissingPacksEnabled": "🗃️ Putting information about deleting messages whose change history was not found in one message {loc:Logging._enabled}",
      "HistoryMissingPacksDisabled": "🗃️ Putting information about deleting messages whose change history was not found in one message {loc:Logging._disabled}",
      "OutputToImage": "🖨️ Large message histories will be displayed as \n> __**Images** (slower, larger size)__ \n> HTML document (faster, recommended)",
      "OutputToHtml": "🖨️ Large message histories will be displayed as \n> Images (slower, larger size) \n> __**HTML document** (faster, recommended)__",
      "LogChannel": "🗒️ Log channel: {0}",
      "LogChannelMissing": "**not selected**. To select, send a message of the form ```/setchannel Log [here is the mention of the desired channel]```",
      "LoggedChannelsTitle": "📟 Logging enabled channels",
      "LoggedChannelsEmpty": "*There's nothing here*",
      "InfoTitle": "Controls",
      "Info": "📝 To add or remove a channel to the logging, just write a message that contains it's mention.\n For example:\n> {0}\n***Warning:*** Enable logging only for really important channels. Each message uses up storage for our bot. The more economically we all use it, the later I will have to introduce clearing history of old messages. Treat this with understanding"
    }
  }
}
